1.423 0.855 2.43 1.56 1.27 2.8 3.06 0.28 2.29 1.128 1.04 3.92 1.065 1 0 0 
1.208 0.665 2.3 2.36 0.7 2.2 1.59 0.42 1.38 0.348 1.07 3.21 0.625 0 1 0 
1.32 0.89 2.14 1.12 1 2.65 2.76 0.26 1.28 0.876 1.05 3.4 1.05 1 0 0 
1.208 0.915 2.32 1.85 0.81 1.6 1.5 0.52 1.64 0.48 1.08 2.27 0.48 0 1 0 
1.316 1.18 2.67 1.86 1.01 2.8 3.24 0.3 2.81 1.136 1.03 3.17 1.185 1 0 0 
1.2 0.755 2.42 2.2 0.86 1.45 1.25 0.5 1.63 0.72 1.05 2.65 0.45 0 1 0 
1.437 0.975 2.5 1.68 1.13 3.85 3.49 0.24 2.18 1.56 0.86 3.45 1.48 1 0 0 
1.269 0.765 2.26 2.07 0.8 1.38 1.46 0.58 1.62 0.61 0.96 2.06 0.495 0 1 0 
1.324 1.295 2.87 2.1 1.18 2.8 2.69 0.39 1.82 0.864 1.04 2.93 0.735 1 0 0 
1.229 1.415 2.22 1.8 0.88 2.45 2.25 0.25 1.99 0.43 1.15 3.3 0.29 0 1 0 
1.42 0.88 2.45 1.52 1.12 3.27 3.39 0.34 1.97 1.35 1.05 2.85 1.45 1 0 0 
1.162 0.995 2.28 1.8 0.98 3.02 2.26 0.17 1.35 0.65 1.16 2.96 0.345 0 1 0 
1.439 0.935 2.45 1.46 0.96 2.5 2.52 0.3 1.98 1.05 1.02 3.58 1.29 1 0 0 
1.247 0.76 2.2 1.9 1.62 2.5 2.27 0.32 3.28 0.52 1.16 2.63 0.937 0 1 0 
1.406 1.075 2.61 1.76 1.21 2.6 2.51 0.31 1.25 1.01 1.06 3.58 1.295 1 0 0 
1.181 1.06 2.74 2.15 1.34 1.6 0.99 0.14 1.56 0.5 0.95 2.26 0.625 0 1 0 
1.483 0.82 2.17 1.4 0.97 2.8 2.98 0.29 1.98 1.04 1.08 2.85 1.045 1 0 0 
1.229 0.705 1.98 1.6 0.85 2.55 2.5 0.29 1.77 0.58 1.23 2.74 0.428 0 1 0 
1.386 0.675 2.27 1.6 0.98 2.98 3.15 0.22 1.85 1.444 1.01 3.55 1.045 1 0 0 
1.237 0.535 2.1 1.85 0.88 3.52 3.75 0.24 1.95 0.9 1.04 2.77 0.66 0 1 0 
1.41 1.08 2.3 1.8 1.05 2.95 3.32 0.22 2.38 1.15 1.25 3.17 1.51 1 0 0 
1.229 1.585 2.21 1.8 0.88 2.85 2.99 0.45 2.81 0.46 1.42 2.83 0.406 0 1 0 
1.412 0.74 2.32 1.68 0.95 2.2 2.43 0.26 1.57 1 1.17 2.82 1.28 1 0 0 
1.208 1.04 1.7 1.75 0.97 2.23 2.17 0.26 1.4 0.66 1.27 2.96 0.71 0 1 0 
1.375 0.865 2.41 1.6 0.89 2.6 2.76 0.29 1.81 1.12 1.15 2.9 1.32 1 0 0 
1.26 0.67 1.9 1.85 0.88 1.45 1.36 0.29 1.35 0.49 1.04 2.77 0.562 0 1 0 
1.475 0.865 2.39 1.14 0.91 3.1 3.69 0.43 2.81 1.08 1.25 2.73 1.15 1 0 0 
1.234 1.225 2.46 2.1 0.98 2.56 2.11 0.34 1.31 0.56 0.8 3.38 0.438 0 1 0 
1.438 0.935 2.38 1.2 1.02 3.3 3.64 0.29 2.96 1.5 1.2 3 1.547 1 0 0 
1.182 0.86 1.88 1.95 0.86 2.5 1.64 0.37 1.42 0.412 0.94 2.44 0.415 0 1 0 
1.363 0.905 2.7 1.72 1.12 2.85 2.91 0.3 1.46 1.46 1.28 2.88 1.31 1 0 0 
1.251 0.865 1.98 2.05 0.85 2.2 1.92 0.32 1.48 0.588 1.04 3.57 0.672 0 1 0 
1.43 0.96 2.72 2 1.2 2.8 3.14 0.33 1.97 1.24 1.07 2.65 1.28 1 0 0 
1.242 1.275 2.27 2.2 0.9 1.68 1.84 0.66 1.42 0.54 0.86 3.3 0.315 0 1 0 
1.383 0.785 2.62 2 1.15 2.95 3.4 0.4 1.72 1.32 1.13 2.57 1.13 1 0 0 
1.225 0.865 2.12 1.9 0.8 1.65 2.03 0.37 1.63 0.68 1 3.17 0.51 0 1 0 
1.419 0.795 2.48 1.65 1.08 3.3 3.93 0.32 1.86 1.74 1.23 2.82 1.68 1 0 0 
1.272 0.875 2.28 2.25 0.84 1.38 1.76 0.48 1.63 0.66 0.88 2.42 0.488 0 1 0 
1.364 1.55 2.56 1.52 1.16 2.7 3.03 0.17 1.66 1.02 0.96 3.36 0.845 1 0 0 
1.222 0.645 1.94 1.9 0.92 2.36 2.04 0.39 2.08 0.54 0.86 3.02 0.312 0 1 0 
1.406 0.815 2.28 1.6 1.26 3 3.17 0.24 2.1 1.13 1.09 3.71 0.78 1 0 0 
1.161 0.675 2.7 2 0.94 2.74 2.92 0.29 2.49 0.53 0.96 3.26 0.68 0 1 0 
1.293 1.9 2.65 1.86 1.02 2.41 2.41 0.25 1.98 0.9 1.03 3.52 0.77 1 0 0 
1.146 1.87 1.82 1.95 1.07 3.18 2.58 0.24 3.58 0.58 0.75 2.81 0.562 0 1 0 
1.371 0.93 2.36 1.66 1.01 2.61 2.88 0.27 1.69 0.76 1.11 4 1.035 1 0 0 
1.252 1.215 2.17 2.1 0.88 2.55 2.27 0.26 1.22 0.4 0.9 2.78 0.325 0 1 0 
1.285 0.8 2.52 1.78 0.95 2.48 2.37 0.26 1.46 0.786 1.09 3.63 1.015 1 0 0 
1.176 1.34 2.92 2 1.03 1.75 2.03 0.6 1.05 0.76 1.23 2.5 0.607 0 1 0 
1.35 0.905 2.61 2 0.96 2.53 2.61 0.28 1.66 0.704 1.12 3.82 0.845 1 0 0 
1.141 0.37 2.5 2.1 0.88 2.48 2.01 0.42 1.44 0.616 1.1 2.31 0.434 0 1 0 
1.305 1.025 3.22 2.5 1.24 2.63 2.68 0.47 1.92 0.716 1.13 3.2 0.83 1 0 0 
1.208 0.695 2.5 2.25 0.84 2.56 2.29 0.43 1.04 0.58 0.93 3.19 0.385 0 1 0 
1.339 0.885 2.62 1.61 0.93 2.85 2.94 0.34 1.45 0.96 0.92 3.22 1.195 1 0 0 
1.103 0.755 2.2 2.15 0.85 2.46 2.17 0.52 2.01 0.38 1.71 2.87 0.407 0 1 0 
1.33 0.86 2.14 1.7 0.94 2.4 2.19 0.27 1.35 0.79 1.02 2.77 1.285 1 0 0 
1.182 0.735 1.99 2.08 0.86 1.98 1.6 0.3 1.53 0.39 0.95 3.33 0.495 0 1 0 
1.387 0.95 2.8 1.94 1.07 2.95 2.97 0.37 1.76 0.9 1.25 3.4 0.915 1 0 0 
1.242 0.805 2.19 2.25 1.08 2 2.09 0.34 1.61 0.412 1.06 2.96 0.345 0 1 0 
1.402 0.84 2.21 1.6 0.96 2.65 2.33 0.26 1.98 0.94 1.04 3.59 1.035 1 0 0 
1.277 1.715 1.98 1.6 0.8 1.63 1.25 0.43 0.83 0.68 0.7 2.12 0.372 0 1 0 
1.373 0.75 2.7 2.25 1.01 3 3.25 0.29 2.38 1.14 1.19 2.71 1.285 1 0 0 
1.2 1.715 2 1.9 0.87 2 1.64 0.37 1.87 0.256 0.93 3.05 0.564 0 1 0 
1.358 0.83 2.36 1.91 1.06 2.86 3.19 0.22 1.95 1.38 1.09 2.88 1.515 1 0 0 
1.145 1.2 2.42 2 0.96 2.9 2.79 0.32 1.83 0.65 0.8 3.39 0.625 0 1 0 
1.368 0.915 2.36 1.72 1.04 2.42 2.69 0.42 1.97 0.768 1.23 2.87 0.99 1 0 0 
1.156 1.025 3.23 2.85 1.19 3.18 5.08 0.47 1.87 1.2 0.93 3.69 0.465 0 1 0 
1.376 0.765 2.7 1.95 1.32 2.95 2.74 0.5 1.35 1.08 1.25 3 1.235 1 0 0 
1.242 2.215 2.73 2.65 1.02 2.2 2.13 0.43 1.71 0.416 0.92 3.12 0.365 0 1 0 
1.351 0.9 2.65 1.9 1.1 2.35 2.53 0.29 1.54 0.84 1.1 2.87 1.095 1 0 0 
1.305 2.9 2.13 2.15 0.86 2.62 2.65 0.3 2.01 0.52 0.73 3.1 0.38 0 1 0 
1.348 0.905 2.41 2.05 1 2.7 2.98 0.26 1.86 1.02 1.04 3.47 0.92 1 0 0 
1.187 2.155 2.39 2.1 0.82 2.86 3.03 0.21 2.91 0.56 0.75 3.64 0.38 0 1 0 
1.328 0.82 2.84 1.55 1.1 2.6 2.68 0.34 1.36 0.92 1.09 2.78 0.88 1 0 0 
1.207 1.08 2.17 2.1 0.85 2.6 2.65 0.37 1.35 0.552 0.86 3.28 0.378 0 1 0 
1.305 0.825 2.55 1.8 0.98 2.45 2.43 0.29 1.44 0.85 1.12 2.51 1.105 1 0 0 
1.243 0.765 2.29 2.15 0.86 2.74 3.15 0.39 1.77 0.788 0.69 2.84 0.352 0 1 0 
1.307 0.75 2.1 1.55 0.98 2.4 2.64 0.28 1.37 0.74 1.18 2.69 1.02 1 0 0 
1.179 1.065 2.78 2.85 0.92 2.13 2.24 0.58 1.76 0.6 0.97 2.44 0.466 0 1 0 
1.422 1.995 2.51 1.32 1.28 3 3.04 0.2 2.08 1.02 0.89 3.53 0.76 1 0 0 
1.237 0.815 2.3 2.45 0.88 2.22 2.45 0.4 1.9 0.424 0.89 2.78 0.342 0 1 0 
1.356 0.855 2.31 1.62 1.17 3.15 3.29 0.34 2.34 1.226 0.95 3.38 0.795 1 0 0 
1.204 2.15 2.38 2.2 0.8 2.1 1.75 0.42 1.35 0.52 0.79 2.57 0.58 0 1 0 
1.341 1.92 2.12 1.88 0.9 2.45 2.68 0.27 1.48 0.856 0.91 3 1.035 1 0 0 
1.286 0.675 2.32 1.8 1.22 1.51 1.25 0.21 0.94 0.82 0.76 1.29 0.63 0 0 1 
1.388 0.945 2.59 1.5 1.01 3.25 3.56 0.17 1.7 1.086 0.88 3.56 1.095 1 0 0 
1.288 1.495 2.4 2 1.04 1.3 1.22 0.24 0.83 1.08 0.74 1.42 0.53 0 0 1 
1.324 1.99 2.29 1.75 1.03 2.64 2.63 0.32 1.66 0.872 0.82 3 0.68 1 0 0 
1.281 1.155 2.4 2.4 0.98 1.15 1.09 0.27 0.83 1.14 0.66 1.36 0.56 0 0 1 
1.305 0.885 2.1 1.7 1.07 3 3 0.28 2.03 1.008 0.88 3.35 0.885 1 0 0 
1.27 1.775 2.36 2.15 1.06 1.7 1.2 0.17 0.84 1 0.78 1.29 0.6 0 0 1 
1.421 2.02 2.44 1.89 1.11 2.85 2.65 0.3 1.25 1.048 0.87 3.33 1.08 1 0 0 
1.251 0.62 2.25 1.75 0.85 2 0.58 0.6 1.25 1.09 0.75 1.51 0.65 0 0 1 
1.438 1.795 2.28 1.6 1.02 3.25 3.17 0.27 2.19 0.98 1.04 3.44 1.065 1 0 0 
1.26 1.23 2.2 1.85 0.94 1.62 0.66 0.63 0.94 1.42 0.73 1.58 0.695 0 0 1 
1.39 0.84 2.12 1.6 1.01 3.1 3.39 0.21 2.14 1.22 0.91 3.33 0.985 1 0 0 
1.225 2.36 2.54 2.1 0.89 1.38 0.47 0.53 0.8 0.77 0.75 1.27 0.72 0 0 1 
1.41 1.01 2.4 1.88 1.03 2.75 2.92 0.32 2.38 1.24 1.07 2.75 1.06 1 0 0 
1.253 2.755 2.64 2.5 0.96 1.79 0.6 0.63 1.1 1 0.82 1.69 0.515 0 0 1 
1.394 0.865 2.27 1.74 1.08 2.88 3.54 0.32 2.08 1.78 1.12 3.1 1.26 1 0 0 
1.349 1.795 2.19 1.95 0.88 1.62 0.48 0.58 0.88 1.14 0.81 1.82 0.58 0 0 1 
1.305 0.865 2.04 1.24 0.92 2.72 3.27 0.17 2.91 1.44 1.12 2.91 1.15 1 0 0 
1.284 1.48 2.61 2.4 1.01 2.32 0.6 0.53 0.81 0.984 0.89 2.15 0.59 0 0 1 
1.383 0.825 2.6 1.72 0.94 2.45 2.99 0.22 2.29 1.12 1.24 3.37 1.265 1 0 0 
1.293 1.405 2.7 2.1 0.96 1.54 0.5 0.53 0.75 0.92 0.77 2.31 0.6 0 0 1 
1.382 0.875 2.42 1.4 1.11 3.88 3.74 0.32 1.87 1.41 1.01 3.26 1.19 1 0 0 
1.336 1.28 2.35 2 0.89 1.4 0.5 0.37 0.64 1.12 0.7 2.47 0.78 0 0 1 
1.377 0.95 2.68 1.71 1.15 3 2.79 0.39 1.68 1.26 1.13 2.93 1.375 1 0 0 
1.352 1.585 2.72 2.35 0.97 1.55 0.52 0.5 0.55 0.87 0.89 2.06 0.52 0 0 1 
1.374 0.835 2.25 1.64 1.18 2.6 2.9 0.21 1.62 1.17 0.92 3.2 1.06 1 0 0 
1.362 2.475 2.35 2 0.92 2 0.8 0.47 1.02 0.88 0.91 2.05 0.55 0 0 1 
1.356 0.865 2.46 2.05 1.16 2.96 2.78 0.2 2.45 1.25 0.98 3.03 1.12 1 0 0 
1.225 1.94 2.2 1.85 1.12 1.38 0.78 0.29 1.14 1.642 0.65 2 0.855 0 0 1 
1.422 0.85 2.3 1.63 1.18 3.2 3 0.26 2.03 1.276 0.94 3.31 0.97 1 0 0 
1.316 1.785 2.15 2.1 1.02 1.5 0.55 0.43 1.3 0.8 0.6 1.68 0.83 0 0 1 
1.329 0.985 2.68 1.68 1.02 3 3.23 0.31 1.66 1.2 1.07 2.84 1.27 1 0 0 
1.388 2.52 2.23 2 0.8 0.98 0.34 0.4 0.68 0.98 0.58 1.33 0.415 0 0 1 
1.372 0.715 2.5 1.67 1.08 3.4 3.67 0.19 2.04 1.36 0.89 2.87 1.285 1 0 0 
1.287 2.305 2.48 2.15 0.86 1.7 0.65 0.47 0.86 1.53 0.54 1.86 0.625 0 0 1 
1.237 0.47 1.36 1.06 0.88 1.98 0.57 0.28 0.42 0.39 1.05 1.82 0.52 0 1 0 
1.332 1.62 2.38 2.15 0.92 1.93 0.76 0.45 1.25 1.684 0.55 1.62 0.65 0 0 1 
1.233 0.55 2.28 1.6 1.01 2.05 1.09 0.63 0.41 0.654 1.25 1.67 0.68 0 1 0 
1.308 1.95 2.36 2.15 1.13 1.41 1.39 0.34 1.14 1.88 0.57 1.33 0.55 0 0 1 
1.264 0.68 2.02 1.68 1 2.02 1.41 0.53 0.62 1.15 0.98 1.59 0.45 0 1 0 
1.35 1.56 2.62 2.4 1.23 1.4 1.57 0.22 1.25 1.72 0.59 1.3 0.5 0 0 1 
1.367 0.625 1.92 1.8 0.94 2.1 1.79 0.32 0.73 0.76 1.23 2.46 0.63 0 1 0 
1.279 1.335 2.48 2.2 1.12 1.48 1.36 0.24 1.26 2.16 0.48 1.47 0.48 0 0 1 
1.237 0.565 2.16 1.9 0.87 3.5 3.1 0.19 1.87 0.89 1.22 2.87 0.42 0 1 0 
1.311 0.95 2.75 2.55 1.16 2.2 1.28 0.26 1.56 1.42 0.61 1.33 0.425 0 0 1 
1.217 0.725 2.53 1.9 1.04 1.89 1.75 0.45 1.03 0.59 1.45 2.23 0.355 0 1 0 
1.323 1.65 2.28 1.85 0.98 1.8 0.83 0.61 1.87 2.104 0.56 1.51 0.675 0 0 1 
1.237 0.605 2.56 1.81 0.98 2.42 2.65 0.37 2.08 0.92 1.19 2.3 0.678 0 1 0 
1.258 0.645 2.1 2 1.03 1.48 0.58 0.53 1.4 1.52 0.58 1.55 0.64 0 0 1 
1.311 0.505 1.7 1.5 0.78 2.98 3.18 0.26 2.28 1.06 1.12 3.18 0.502 0 1 0 
1.317 2.595 2.32 2.2 0.93 1.74 0.63 0.61 1.55 1.58 0.6 1.48 0.725 0 0 1 
1.237 0.585 1.92 1.96 0.78 2.11 2 0.27 1.04 0.936 1.12 3.48 0.51 0 1 0 
1.384 2.06 2.38 1.95 0.89 1.8 0.83 0.48 1.56 1.802 0.57 1.64 0.48 0 0 1 
1.334 0.47 2.36 1.7 1.1 2.53 1.3 0.55 0.42 0.634 1.02 1.93 0.75 0 1 0 
1.245 1.515 2.64 2.7 0.97 1.9 0.58 0.63 1.14 1.5 0.67 1.73 0.88 0 0 1 
